{
  "project_info": {
    "project_number": "300291874133",
    "project_id": "flutter-test---kosmos-digital",
    "storage_bucket": "flutter-test---kosmos-digital.appspot.com"
  },
  "client": [
    {
      "client_info": {
        "mobilesdk_app_id": "1:300291874133:android:cd8dbc193bdb8de2e9a3dc",
        "android_client_info": {
          "package_name": "com.maxence.kosmostest"
        }
      },
      "oauth_client": [
        {
          "client_id": "300291874133-7ujt4n662oojgup57lau4f1dqhipn2kq.apps.googleusercontent.com",
          "client_type": 3
        }
      ],
      "api_key": [
        {
          "current_key": "AIzaSyAy_9Ep76ay-UgyDIhtPyUT0GoANm02Mv8"
        }
      ],
      "services": {
        "appinvite_service": {
          "other_platform_oauth_client": [
            {
              "client_id": "300291874133-7ujt4n662oojgup57lau4f1dqhipn2kq.apps.googleusercontent.com",
              "client_type": 3
            },
            {
              "client_id": "300291874133-1o71elucfjb3v0um8pia8dqv9jbbmvtf.apps.googleusercontent.com",
              "client_type": 2,
              "ios_info": {
                "bundle_id": "com.maxence.kosmostest"
              }
            }
          ]
        }
      }
    }
  ],
  "configuration_version": "1"
}